lab0/waveform.vcd
$version Generated by VerilatedVcd $end
$date Mon Jul 31 22:08:11 2023
 $end
$timescale   1ps $end

 $scope module TOP $end
  $var wire  4 = a [3:0] $end
  $var wire  4 > b [3:0] $end
  $var wire  3 ? s [2:0] $end
  $var wire  4 @ y [3:0] $end
  $scope module alu $end
   $var wire  4 = a [3:0] $end
   $var wire  4 # addOut [3:0] $end
   $var wire  4 > b [3:0] $end
   $var wire  4 A notB [3:0] $end
   $var wire  3 ? s [2:0] $end
   $var wire  4 $ subOut [3:0] $end
   $var wire  4 @ y [3:0] $end
   $scope module F1 $end
    $var wire  1 D S $end
    $var wire  1 B a $end
    $var wire  1 E a1_ $end
    $var wire  1 ^ a2_ $end
    $var wire  1 C b $end
    $var wire  1 ^ cin $end
    $var wire  1 E cout $end
    $var wire  1 D x1_ $end
   $upscope $end
   $scope module F2 $end
    $var wire  1 & S $end
    $var wire  1 F a $end
    $var wire  1 I a1_ $end
    $var wire  1 ( a2_ $end
    $var wire  1 G b $end
    $var wire  1 % cin $end
    $var wire  1 H cout $end
    $var wire  1 ' x1_ $end
   $upscope $end
   $scope module F3 $end
    $var wire  1 * S $end
    $var wire  1 J a $end
    $var wire  1 M a1_ $end
    $var wire  1 , a2_ $end
    $var wire  1 K b $end
    $var wire  1 ) cin $end
    $var wire  1 L cout $end
    $var wire  1 + x1_ $end
   $upscope $end
   $scope module F4 $end
    $var wire  1 . S $end
    $var wire  1 N a $end
    $var wire  1 Q a1_ $end
    $var wire  1 0 a2_ $end
    $var wire  1 O b $end
    $var wire  1 - cin $end
    $var wire  1 P cout $end
    $var wire  1 / x1_ $end
   $upscope $end
   $scope module F5 $end
    $var wire  1 S S $end
    $var wire  1 B a $end
    $var wire  1 T a1_ $end
    $var wire  1 ^ a2_ $end
    $var wire  1 R b $end
    $var wire  1 ^ cin $end
    $var wire  1 T cout $end
    $var wire  1 S x1_ $end
   $upscope $end
   $scope module F6 $end
    $var wire  1 2 S $end
    $var wire  1 F a $end
    $var wire  1 W a1_ $end
    $var wire  1 4 a2_ $end
    $var wire  1 U b $end
    $var wire  1 1 cin $end
    $var wire  1 V cout $end
    $var wire  1 3 x1_ $end
   $upscope $end
   $scope module F7 $end
    $var wire  1 6 S $end
    $var wire  1 J a $end
    $var wire  1 Z a1_ $end
    $var wire  1 8 a2_ $end
    $var wire  1 X b $end
    $var wire  1 5 cin $end
    $var wire  1 Y cout $end
    $var wire  1 7 x1_ $end
   $upscope $end
   $scope module F8 $end
    $var wire  1 : S $end
    $var wire  1 N a $end
    $var wire  1 ] a1_ $end
    $var wire  1 < a2_ $end
    $var wire  1 [ b $end
    $var wire  1 9 cin $end
    $var wire  1 \ cout $end
    $var wire  1 ; x1_ $end
   $upscope $end
  $upscope $end
 $upscope $end
$enddefinitions $end


#0
b0000 #
b0100 $
0%
1&
1'
0(
0)
1*
1+
0,
0-
1.
1/
00
01
12
13
04
05
06
07
08
19
1:
0;
0<
b0101 =
b1010 >
b000 ?
b1111 @
b0110 A
1B
0C
1D
0E
0F
1G
0H
0I
1J
0K
0L
0M
0N
1O
0P
0Q
0R
1S
0T
1U
0V
0W
1X
1Y
1Z
0[
0\
0]
0^
#1
b1000 $
0&
0'
09
0:
b1000 =
b0101 >
b1101 @
b1011 A
0B
1C
0G
0J
1K
1N
0O
1R
0X
0Y
0Z
1[
1\
1]
#2
b1000 #
b1110 $
1&
1'
0*
0+
0.
0/
02
03
15
17
18
19
1;
1<
b1010 =
b1001 >
b0011 @
b0111 A
1F
0K
1O
1P
1Q
1V
1W
1X
1Y
0[
0]
#3
b1111 #
b1101 $
1%
0&
1(
1)
1+
1,
1-
1.
11
12
05
07
08
b1101 =
b1011 >
b1000 @
b0101 A
1B
0D
1E
0F
1G
1H
1J
1L
0S
1T
0U
0V
0W
1Z
#4
b0110 #
b0010 $
0%
0'
0(
01
02
15
16
09
1:
0<
b0011 =
b0110 >
b001 ?
b1101 @
b1010 A
0C
1D
0E
1F
1I
0J
1K
0N
0O
0P
0Q
0R
1S
0T
1U
1V
1W
0X
0Y
0Z
1[
0\
#5
b0000 #
b1000 $
1&
1'
0)
0+
0,
0-
1/
12
13
05
17
0:
0;
b1000 =
b0010 >
b0110 @
b1110 A
0B
0D
0F
0H
0I
0K
0L
1N
0S
0V
0W
1X
1\
1]
#6
b1100 #
b1100 $
1-
0.
10
06
07
19
1:
b1110 =
b0100 >
b1010 @
b1100 A
1F
0G
1J
1K
1L
1M
1P
0U
1Y
1Z
#7
b1001 #
b0011 $
1%
0'
1*
1+
0-
0/
00
11
02
14
15
16
09
1;
b1001 =
b1101 >
b1100 @
b0011 A
1B
1C
1E
0F
0J
0L
0M
1O
1Q
1R
1T
1U
1V
0X
0Y
0Z
0[
0\
0]
#8
b0000 #
b1100 $
0%
1'
1.
1/
01
03
04
05
06
19
0;
b1100 =
b0011 >
b010 ?
b0011 @
b1101 A
0B
1D
0E
1G
1J
0K
0O
0P
0Q
1S
0T
0U
0V
1X
1Y
1Z
1[
1\
1]
#9
b0000 $
12
13
16
17
09
1;
b0110 =
b1000 >
b1001 @
b1000 A
0C
0D
1F
0G
0N
1O
0R
0S
0X
0Y
0Z
0\
0]
#10
b1010 #
b1110 $
0&
0'
1)
0+
0.
0/
02
03
15
06
18
19
0:
1<
b1011 =
b1010 >
b0100 @
b0110 A
1B
1D
1G
1H
1I
0J
1N
1P
1Q
1S
1U
1V
1W
1X
1Y
0[
1\
#11
b0010 #
b0010 =
b0010 >
b1101 @
b1110 A
0B
0D
0N
0O
0P
0Q
0S
1[
#12
b0110 $
1.
1/
1:
0;
0<
b0011 =
b1010 >
b011 ?
b0010 @
b0110 A
1B
1D
1O
1S
0[
0\
#13
b0000 #
b0000 $
1&
1'
0)
1+
0.
0/
12
13
05
16
08
09
0:
b0111 =
b0000 >
b0000 @
b0000 A
0G
0H
0I
1J
0O
0U
0V
0W
0X
0Y
#14
b1000 #
b1110 $
02
03
15
07
19
1;
1<
b1110 =
b1001 >
b1000 @
b0111 A
0B
1C
1N
1O
1P
1Q
1R
1U
1V
1W
1X
1Y
1Z
1\
#15
b1110 #
b1100 $
0&
0'
1)
0*
1,
1-
1.
12
13
05
06
b1011 >
b1010 @
b0101 A
1G
1H
1I
1L
0U
0V
0W
#16
b1100 #
b0000 $
1&
1'
0)
0+
0,
0.
1/
10
16
17
09
0;
0<
b0100 =
b1110 >
b100 ?
b1110 @
b0010 A
0C
0D
0F
0H
0I
1K
1M
0N
0Q
0R
0S
1U
0X
0Y
0Z
0\
#17
b0000 #
b1000 $
1*
1+
0-
1.
00
06
07
b1001 =
b0110 >
b1111 @
b1010 A
1B
1D
0J
0L
0M
1N
0O
0P
1S
1[
1\
1]
#18
02
03
b1000 =
b0111 >
b1001 A
0B
1C
1R
0U
#19
b0011 #
b0111 $
1%
0'
1)
0+
11
13
14
15
17
18
19
1:
b0011 =
b1011 >
b1011 @
b0101 A
1B
0D
1E
1F
1H
1I
0K
0N
1O
0S
1T
1V
1X
1Y
0[
0\
0]
#20
b1110 #
b1100 $
0%
0&
0*
1+
1,
1-
0.
10
01
12
04
05
07
08
b1110 =
b0011 >
b101 ?
b1101 @
b1101 A
0B
1D
0E
1J
1L
1N
0O
1P
1S
0T
0V
1Z
1[
1\
1]
#21
b1100 #
b1110 $
1&
1'
0)
0+
0,
02
03
15
17
18
b0101 >
b1011 @
b1011 A
0G
0H
0I
1K
1M
1U
1V
1W
0X
0Z
#22
b0000 #
b0000 $
1*
1+
0-
0/
00
12
13
05
16
08
09
0:
b0111 =
b0000 >
b0111 @
b0000 A
1B
0C
0K
0L
0M
0N
0P
0R
0U
0V
0W
0Y
0[
0\
0]
#23
1.
1/
b0011 =
b1100 >
b1111 @
b0100 A
0J
1K
1O
1X
#24
b0010 #
b0110 $
0&
0'
1)
0+
02
03
15
06
18
19
1:
b1010 >
b110 ?
b0001 @
b0110 A
1G
1H
1I
0K
1U
1V
1W
1Y
#25
b0000 #
b0000 $
0)
1+
0.
0/
05
16
08
09
0:
b0101 =
b0000 >
b0000 A
0F
0G
0H
0I
1J
0O
0U
0V
0W
0X
0Y
#26
1.
1/
1:
1;
b1100 =
b0000 @
0B
0D
1N
0S
#27
0*
0+
06
07
b1001 =
1B
1D
0J
1S
#28
b1110 $
1&
1'
15
17
18
19
0;
b1010 =
b0001 >
b111 ?
b1111 A
0B
1C
1F
1R
1U
1V
1W
1X
1Y
1[
1\
1]
#29
b1000 $
0&
0'
12
13
05
16
08
09
0:
b1000 =
0F
0V
0W
0Y
#30
b0110 #
b0000 $
1)
1+
1,
1-
0/
06
07
1:
1;
b0010 =
b0111 >
b1001 A
1F
1G
1H
1I
1K
1L
0N
0U
0X
0\
0]
#31
b1101 #
b1111 $
1%
1&
0)
0+
0,
11
02
14
15
17
18
19
0:
1<
b1101 =
b1101 >
b0001 @
b0011 A
1B
0D
1E
0F
0G
0H
0I
1J
1M
1N
1O
1P
1Q
0S
1T
1U
1V
1Y
0[
1\
